\BOOKMARK [0][-]{section*.1}{Provenance of R's Gradient Optimizers}{}% 1
\BOOKMARK [1][-]{section.2.1}{The task}{section*.1}% 2
\BOOKMARK [1][-]{section.2.2}{Types of methods}{section*.1}% 3
\BOOKMARK [1][-]{section.2.3}{Limited memory approaches and conjugate gradients}{section*.1}% 4
\BOOKMARK [1][-]{section.2.4}{Gradient optimizers in R}{section*.1}% 5
\BOOKMARK [1][-]{section.2.5}{Summary and perspective}{section*.1}% 6
